Brother Joe : 288
sex : 5051
hipster : 5052
nigger : 5095
love : 5054
slut : 5098
woody : 5000
nigga : 5000
vagina : 5070
Bæ : 5086
orgasm : 5048
weed : 5022
urban dictionary : 5000
ass : 5096
Lol : 5000
Nerd : 5093
NextGenUpdate : 44
shit : 5095
chav : 5064
marijuana : 5005
Yolo : 5094
Yolo : 5080
boobs : 5057
Eminem : 5096
whore : 5087
honkey : 892
filipino : 5010
ho : 5000
geek : 5058
pineapples : 5000
Noob : 5000
SOPA : 5096
anal : 5040
cock block : 1414
Andre : 5090
bisexual : 5010
myspace : 5067
bye felicia : 5000
Fanks : 5000
no homo : 5000
school : 5000
qwertyuiopasdfghjklzxcvbnm : 226
TERRORIST : 5000
tits : 5014
Cuck : 5000
asshole : 5000
birthday : 5000
PMS : 5062
High School : 5000
Paris Hilton : 5023
Dork : 5000
bush : 5022
cock : 5099
Bootylicious : 5098
muffin top : 1989
Rule 34 : 1826
facebook : 5000
guido : 5000
stfu : 5000
dumbass : 5000
Weeaboo : 5000
lil wayne : 5097
Procrasturbating : 13
Imma let you finish : 1038
camel toe : 5016
stupid : 5090
dutch oven : 1425
Meh : 5085
kompla : 8
troll : 5000
Sapiosexual : 4019
Natalie : 5083
Porb : 114
Chuck Norris : 5000
Fleek : 5025
Tumblr : 5055
Wait, shit : 1627
Dicks out for Harambe : 377
Niglet : 802
attention whore : 5000
esrun : 17
no offense : 5000
wigger : 546
Bromance : 5000
lewis hamilton : 5084
Masturdating : 79
adam : 5000
fucktard : 4829
productive procrastination : 150
kanye west : 5025
anal sex : 5035
whatever : 5000
Spokompton : 9
Seattle University : 247
life : 5090
dick inches : 21
homework : 5000
twilight : 5000
internet : 5056
fat : 5021
rescue chip : 27
Involuntary "You Too : 6
shitload : 5099
Hentai : 5055
punk : 5000
pwned : 2941
butter face : 585
HOT : 5042
redneck : 5074
social chameleon : 80
beautiful : 5085
Keep fucking that chicken : 357
girlfriend : 5081
awesome : 5000
vuvuzela : 5000
Auto Incorrect : 52
nom nom nom : 4836
dildo : 5008
snarky : 5000
music : 5093
heteroflexible : 1853
christian : 5003
Senpai : 5078
poop : 5000
BDSM : 5040
cool : 5078
Rebecca : 5093
It is what it is : 5091
nympho : 5000
your other left : 87
loser : 5000
Atheism Plus : 44
Soulja Boy : 5054
cool story bro : 2065
shit just got real : 4554
Madison : 5070
scientology : 5069
Please Advise : 5000
Chloe : 5069
Vaguebooking : 57
virgin : 5064
jfgi : 23
united states : 5000
bored : 5000
world of warcraft : 5020
MTV : 5080
maybe later : 4263
asshat : 5000
sniff test : 326
half-your-age-plus-seven : 6
pwn : 5044
stoner : 5000
Tupac : 5073
chronic : 5037
food baby : 2839
nice : 5000
cute : 5013
bed gravity : 60
YouTube Loop : 75
Luke : 5085
Hangry : 5000
girl : 5076
crop dusting : 198
condom : 5032
high : 5096
runescape : 5000
Pi Time : 309
South Park : 5014
prick : 5000
bedgasm : 1097
lmao : 5000
MRA : 5000
bong : 5000
sideboob : 5049
Swooping : 4760
air guitar : 4878
Balls out : 2159
tanorexia : 31
one upper : 334
man chair : 72
Life Password : 12
man cave : 5082
boredom : 5096
One Direction : 5063
baseball cards : 2866
Tramp Stamp : 2542
Let you go : 5000
feminazi : 5000
fart : 5072
asl : 5083
Crush : 5000
idgaf : 5000
recrap : 10
ha : 5000
shocker : 5081
sporking : 36
SJW : 5000
mondaze : 2141
Cannabis : 5034
death : 5000
BFD : 1345
OG : 148
Fugly : 5000
suicide : 5062
WTF : 5083
Porm : 602
Satan : 5000
ricer : 1229
Julia : 5000
Christina : 5000
porn storm : 14
cum dumpster : 755
cocaine : 5021
Bazinga : 5054
anime : 5000
get an inbox : 19
dog : 5062
Deja boo : 1297
OTP : 5000
vignesh : 3894
Stall stall : 67
uber : 5090
poser : 5097
lesbian : 5000
true love : 5092
right-of-stay : 6
the cake is a lie : 1907
Urban farmer : 366
internet explorer : 5082
booty call : 4642
shart : 3408
hella : 5000
Microwave minute : 110
wanker : 5007
Google : 5039
ctfd : 78
QQ : 5000
h.o.l.l.a.n.d : 18
avril lavigne : 5000
agnostic : 5095
mantrum : 64
platonic relationship : 276
Passenger Brake : 7
california : 5081
Cankles : 847
hillary clinton : 5072
Cellfish : 65
Rules Of The Internet : 47
dead text : 157
l337 : 122
bad economy : 596
internest : 68
procrastination : 5070
mom : 5033
Facebrag : 9
Ezekiel 25:17 : 0
photobomb : 5000
alexandra : 5086
your mom : 5022
chick flick : 1197
HARFO : 1004
facebook wit : 20
good talk : 5000
Kelsey : 5000
Defensive Eating : 6
whipped : 5000
Social Terrorism : 24
stoplight party : 28
college : 5071
WAP : 5002
zomg : 3956
party hats : 651
twink : 5072
Fob : 5044
dude : 5000
Hell : 5000
houdini : 5056
people voice : 359
cunnilingus : 5020
Drunk : 5000
New Jersey : 5034
working hard or hardly working : 1002
Virgin Ears : 158
epic fail : 5000
iphone effect : 19
Maris : 5000
pradeep : 5080
Emotional dump : 13
pradeep : 5080
Emotional dump : 13
friend high : 3981
Textpectation : 44
jigaboo : 761
friend high : 3981
Textpectation : 44
jigaboo : 761
n00b : 4830
n00b : 4830
Jesus II : 80
fam : 10056
finger guns : 4208
Stall Waiting : 20
chink : 10000
manther : 8
youtube moment : 115
boyfriend : 10079
the shit out of : 10032
grundle : 424
chicks before dicks : 202
flavorgasm : 9
Edward Cullen : 4207
Bukakke : 1792
PCP : 8958
dick magnet : 35
Beer : 10099
Ann Coulter : 10000
Encyclopedia Dramatica : 624
Hot Topic : 10021
metallica : 10000
World War II : 10032
FFS : 10020
prefill : 888
asdf : 10067
beardo : 4609
gotcha journalism : 402
NSFW : 10044
fomo : 10066
marathoning : 2004
ugly : 10041
no zuo no die : 29
barry : 10094
Lie-Fi : 16
ugly cry : 2760
Google harder : 8
tigger : 10016
Mental Masturbation : 153
coming out of the cupboard : 6
love tap : 495
party : 10071
time vampire : 26
ninja : 10046
booty : 10011
Alexander : 10094
mistext : 56
flash mob : 10079
airplane mode : 10032
hater : 10026
Angela : 10000
eiffel tower : 10014
G : 10098
PETA : 10000
mudkips : 141
religion : 10000
teabagger : 185
sleep : 10000
alone : 10094
carcolepsy : 52
buy-curious : 6
soulmate : 10000
wikipedia : 10058
microwave mentality : 20
intexticated : 8
lindsay lohan : 10082
BMW : 10051
wank : 10098
Angelina Jolie : 10057
big in japan : 1183
brainspin : 7
nas : 10000
Erika : 10053
Abigail : 10080
Child Supervision : 8
Facebook crush : 50
ROFL : 10086
dc : 10099
Japan : 10065
boobies : 10098
apocalypse sex : 8
Joe Sixpack : 80
hash : 10026
Kim Kardashian : 6935
gaybie : 183
Isabella : 10052
Caraoke : 361
basic white girl : 781
homie : 10092
milkshake : 10000
Kaitlyn : 10042
Spiderman : 10000
humblebrag : 2084
Joke Insurance : 7
sand nigger : 228
diana : 10092
bogan : 5990
Slow Burn : 3745
Alexa : 10018
Balls : 10067
Midnight Munchies : 172
Kush : 10086
wake and bake : 3452
maggie : 10056
black friday : 10080
chairdrobe : 8
tired high : 37
afterclap : 12
professional student : 129
fuck you : 10000
lawl : 4473
shuffle shame : 102
Jock : 10000
jailbait : 7747
underboob : 3146
fauxhawk : 102
snake juice : 61
You : 10043
blunt : 10097
cactus legs : 16
Whack it Off : 10
depression : 10028
Noted. : 10099
the game : 10000
mouse potato : 313
Yaoi : 10089
spoiler alert : 10000
loner : 10000
Julie : 10062
Hannah Montana : 10010
player : 10098
Ellie : 10005
grenade : 10095
sup : 10096
apple : 10038
testicular fortitude : 504
shopped : 9031
designated texter : 6
directionally challenged : 121
Star Wars : 10080
VOCD : 93
wallflower : 10079
crack : 10087
booty text : 15
shoe whore : 20
Brand Dropping : 11
Abe Lincoln : 2529
knockout game : 542
lesbro : 13
Hilary Duff : 7466
w00t : 1385
douchebaggery : 800
bullshit bingo : 577
March 14th : 372
flirtationship : 332
Alltheist : 16
intaxication : 22
Lily : 10000
shorty : 10000
Tramp : 10010
Jacqueline : 10070
alicia : 10000
ganja : 10075
goatse : 379
Christine : 10059
textrovert : 172
badonkadonk : 475
Herp Derp : 781
Kiss : 10099
shoot the shit : 1022
san diego : 10094
critical ass : 13
pervert : 10098
Second Life : 6139
shrooms : 6110
bimbo : 10000
kylie : 10078
LMFAO : 10097
parking karma : 8
cumshot : 10091
sugar daddy : 10099
zelda : 10096
reality challenged : 74
Marissa : 10075
air quote : 73
GTFO : 10000
piss in the wind : 56
nfi : 3736
boyfriend drop : 20
aight : 10000
Stoned : 10044
HYPHY : 4304
moon cricket : 41
banana : 10000
Catherine : 10068
Short story long : 152
The book off : 34
Atheist : 10099
nontroversy : 44
huylo : 82
mother fucker : 10089
too posh to push : 14
you can you up : 10
itt : 10095
Thanksgiving pants : 9
girlfriend voice : 11
fauxpology : 34
brickberry : 7
fourth of july : 4477
YouTube : 10000
LSD : 10000
Green day : 10085
fun : 10094
high ten : 59
Basic Bitch : 5036
AWOL : 6685
drop a dime : 196
ex with benefits : 43
ariana : 10090
Brofessional : 42
albatraoz : 929
Glomp : 437
gullible : 10000
hummer : 10078
Nigga Please : 2804
tara : 10011
bogart : 5633
DSL : 10050
smarterchild : 54
Stellato : 2262
Harry Styles : 10038
New York : 10032
badass : 10060
yuppie : 2679
echo chamber : 9497
NAMBLA : 987
batman : 10030
lit : 10094
jennifer aniston : 10090
rock : 10000
computer-face : 54
ship : 10094
autotune : 10000
Coke : 10098
Toiletry : 1771
English : 10098
Louis Tomlinson : 10008
facial : 10001
Minecraft : 10085
Naomi : 10048
nirvana : 10033
tubgirl : 47
Owned : 10051
alcohol : 10000
Bus Surfing : 53
pegging : 10081
Walmart : 10090
coochie : 10094
Kappa : 10000
meth : 10096
a : 10078
thick : 10085
Anonymous : 10095
linux : 10074
Manscape : 227
Audrey : 10076
putting lipstick on a pig : 252
dick flick : 11
me : 10095
Jenna : 10099
Pink Floyd : 10038
Crowny : 697
Larry Stylinson : 8159
Niall Horan : 10017
German : 10096
facepalm : 10000
Senioritis : 10000
The Beatles : 10099
USA : 10057
Dr Google : 819
Charlotte : 10098
Destinesia : 8